Data reporting - combinations - Brian's Data Blog
…
Then I used two dplyr functions I haven’t used before, crossing() and unite() to create the combinations and put them in a tibble.

soil_temp_lookup <- bind_cols(unite(crossing("SN",gnd_cover$code,depth_codes$code),
                                    soil_temp,sep=''),
                              unite(crossing(gnd_cover$desc,depth_codes$depth),desc,sep=", "))

Voila! A functional lookup table that I can add to the other lookups.

soil_temp_lookup

## # A tibble: 63 x 2
##    soil_temp desc               
##    <chr>     <chr>              
##  1 SN01      bare ground, 10 cm 
##  2 SN02      bare ground, 100 cm
##  3 SN03      bare ground, 150 cm
##  4 SN04      bare ground, 180 cm
##  5 SN05      bare ground, 20 cm 
##  6 SN06      bare ground, 5 cm  
##  7 SN07      bare ground, 50 cm 
##  8 SN11      bare muck, 10 cm   
##  9 SN12      bare muck, 100 cm  
## 10 SN13      bare muck, 150 cm  
## # ... with 53 more rows
…
